cannonical_id;property_target;parent_id;definition;execution_datetime
1;operation_type;0;Rent;2022-03-13 11:40:42.450053
2;operation_type;0;Sale;2022-03-13 11:40:42.450053
3;operation_type;0;Short-Rent;2022-03-13 11:40:42.450053
1;is_vertical;0;Vertical;2022-03-13 11:41:59.726704
0;is_vertical;0;Horizontal;2022-03-13 11:41:59.726704
